{
  "project_info": {
    "project_number": "630867992926",
    "firebase_url": "https://message-87112.firebaseio.com",
    "project_id": "message-87112",
    "storage_bucket": "message-87112.appspot.com"
  },
  "client": [
    {
      "client_info": {
        "mobilesdk_app_id": "1:630867992926:android:4a2dd37f77c0d150",
        "android_client_info": {
          "package_name": "com.baosociu.fcmapp"
        }
      },
      "oauth_client": [
        {
          "client_id": "630867992926-d07uo9tf36o0lqr6t7uumncmer4sttnc.apps.googleusercontent.com",
          "client_type": 3
        }
      ],
      "api_key": [
        {
          "current_key": "AIzaSyByJvkfVx6_RWgPykWsr0864yu6uV0opX0"
        }
      ],
      "services": {
        "analytics_service": {
          "status": 1
        },
        "appinvite_service": {
          "status": 1,
          "other_platform_oauth_client": []
        },
        "ads_service": {
          "status": 2
        }
      }
    },
    {
      "client_info": {
        "mobilesdk_app_id": "1:630867992926:android:e08599b1c681817f",
        "android_client_info": {
          "package_name": "com.baosociu.fcmapp2"
        }
      },
      "oauth_client": [
        {
          "client_id": "630867992926-d07uo9tf36o0lqr6t7uumncmer4sttnc.apps.googleusercontent.com",
          "client_type": 3
        }
      ],
      "api_key": [
        {
          "current_key": "AIzaSyByJvkfVx6_RWgPykWsr0864yu6uV0opX0"
        }
      ],
      "services": {
        "analytics_service": {
          "status": 1
        },
        "appinvite_service": {
          "status": 1,
          "other_platform_oauth_client": []
        },
        "ads_service": {
          "status": 2
        }
      }
    },
    {
      "client_info": {
        "mobilesdk_app_id": "1:630867992926:android:cd1fdd6db7aa57d9",
        "android_client_info": {
          "package_name": "com.baosociu.studentportal"
        }
      },
      "oauth_client": [
        {
          "client_id": "630867992926-d07uo9tf36o0lqr6t7uumncmer4sttnc.apps.googleusercontent.com",
          "client_type": 3
        }
      ],
      "api_key": [
        {
          "current_key": "AIzaSyByJvkfVx6_RWgPykWsr0864yu6uV0opX0"
        }
      ],
      "services": {
        "analytics_service": {
          "status": 1
        },
        "appinvite_service": {
          "status": 1,
          "other_platform_oauth_client": []
        },
        "ads_service": {
          "status": 2
        }
      }
    }
  ],
  "configuration_version": "1"
}